Defining an mxFDA object
…
Running this code will calculate univariate Ripley’s K function to
measure spatial clustering of immune cells for each sample, and will
store these spatial summary functions in the
univariate_summaries slot of the mxFDAobject.
To access this slot and view the extracted summary functions, type:

mxFDAobject@univariate_summaries$Kest
#> # A tibble: 24,847 × 6
#>    patientImage_id     r sumfun    csr fundiff `immune cells`
#>    <chr>           <dbl>  <dbl>  <dbl>   <dbl>          <int>
#>  1 2_1                 0      0   0       0                 6
#>  2 2_1                 1      0   3.14   -3.14              6
#>  3 2_1                 2      0  12.6   -12.6               6
#>  4 2_1                 3      0  28.3   -28.3               6
#>  5 2_1                 4      0  50.3   -50.3               6
#>  6 2_1                 5      0  78.5   -78.5               6
#>  7 2_1                 6      0 113.   -113.                6
#>  8 2_1                 7      0 154.   -154.                6
#>  9 2_1                 8      0 201.   -201.                6
#> 10 2_1                 9      0 254.   -254.                6
#> # ℹ 24,837 more rows
…
